{
	
	"databases": [{
		"A": {
			"connection-ip": "localhost",
			"username": "postgres",
			"password": "123",
			"db-name": "example1",
			"table-name": "temp"
		},
		"B": {
			"connection-ip": "12.2.3.45",
			"username": "root",
			"password": "John2020",
			"db-name": "example2",
			"table-name": "temp"
		}
	}],
	"csv-files":{
				"full-path" : "test.csv"
				},
	"contact-info": {
		"method": "email",
		"contact-key": "email",
		"contact-value": "shahin@atlann.co"
	}

}